name: Endpoints
description: ''
endpoints:
  -
    httpMethods:
      - GET
    uri: api/user
    metadata:
      title: ''
      description: ''
      authenticated: false
      custom: []
    headers:
      Content-Type: application/json
      Accept: application/json
    urlParameters: []
    queryParameters: []
    bodyParameters: []
    responses:
      -
        status: 401
        content: '{"message":"Unauthenticated."}'
        headers:
          cache-control: 'no-cache, private'
          content-type: application/json
          access-control-allow-origin: '*'
        description: null
    responseFields: []
  -
    httpMethods:
      - GET
    uri: api/employees
    metadata:
      title: 'Display a listing of the resource.'
      description: ''
      authenticated: false
      custom: []
    headers:
      Content-Type: application/json
      Accept: application/json
    urlParameters: []
    queryParameters: []
    bodyParameters: []
    responses:
      -
        status: 200
        content: '{"current_page":1,"data":[{"id":350,"first_name":"Kailee","last_name":"Bechtelar","email":"jeffery.huel@yahoo.com","phone":null,"created_at":"2022-04-15T18:33:25.000000Z","updated_at":"2022-04-15T18:33:25.000000Z","comp_id":26},{"id":351,"first_name":"Hadley","last_name":"Donnelly","email":"immanuel.blanda@bartoletti.info","phone":null,"created_at":"2022-04-15T18:33:25.000000Z","updated_at":"2022-04-15T18:33:25.000000Z","comp_id":28},{"id":352,"first_name":"Adolphus","last_name":"Jacobs","email":"rhuel@yahoo.com","phone":null,"created_at":"2022-04-15T18:33:25.000000Z","updated_at":"2022-04-15T18:33:25.000000Z","comp_id":23},{"id":353,"first_name":"Alfreda","last_name":"O''Conner","email":"bode.lyla@roob.org","phone":null,"created_at":"2022-04-15T18:33:25.000000Z","updated_at":"2022-04-15T18:33:25.000000Z","comp_id":17},{"id":354,"first_name":"Khalil","last_name":"Hartmann","email":"maverick.lowe@turner.com","phone":null,"created_at":"2022-04-15T18:33:25.000000Z","updated_at":"2022-04-15T18:33:25.000000Z","comp_id":30},{"id":355,"first_name":"Remington","last_name":"Abshire","email":"leonora.jacobs@yahoo.com","phone":null,"created_at":"2022-04-15T18:33:25.000000Z","updated_at":"2022-04-15T18:33:25.000000Z","comp_id":20},{"id":356,"first_name":"Orville","last_name":"Altenwerth","email":"dparker@gmail.com","phone":null,"created_at":"2022-04-15T18:33:25.000000Z","updated_at":"2022-04-15T18:33:25.000000Z","comp_id":29},{"id":357,"first_name":"Gregoria","last_name":"Kassulke","email":"jane.schuppe@bernier.com","phone":null,"created_at":"2022-04-15T18:33:25.000000Z","updated_at":"2022-04-15T18:33:25.000000Z","comp_id":30},{"id":358,"first_name":"Joshuah","last_name":"Bogisich","email":"beatty.marisol@jenkins.org","phone":null,"created_at":"2022-04-15T18:33:25.000000Z","updated_at":"2022-04-15T18:33:25.000000Z","comp_id":30},{"id":359,"first_name":"Jaydon","last_name":"Schneider","email":"angie79@bashirian.com","phone":null,"created_at":"2022-04-15T18:33:25.000000Z","updated_at":"2022-04-15T18:33:25.000000Z","comp_id":27}],"first_page_url":"http:\/\/second_project.test\/api\/employees?page=1","from":1,"last_page":20,"last_page_url":"http:\/\/second_project.test\/api\/employees?page=20","links":[{"url":null,"label":"&laquo; Previous","active":false},{"url":"http:\/\/second_project.test\/api\/employees?page=1","label":"1","active":true},{"url":"http:\/\/second_project.test\/api\/employees?page=2","label":"2","active":false},{"url":"http:\/\/second_project.test\/api\/employees?page=3","label":"3","active":false},{"url":"http:\/\/second_project.test\/api\/employees?page=4","label":"4","active":false},{"url":"http:\/\/second_project.test\/api\/employees?page=5","label":"5","active":false},{"url":"http:\/\/second_project.test\/api\/employees?page=6","label":"6","active":false},{"url":"http:\/\/second_project.test\/api\/employees?page=7","label":"7","active":false},{"url":"http:\/\/second_project.test\/api\/employees?page=8","label":"8","active":false},{"url":"http:\/\/second_project.test\/api\/employees?page=9","label":"9","active":false},{"url":"http:\/\/second_project.test\/api\/employees?page=10","label":"10","active":false},{"url":null,"label":"...","active":false},{"url":"http:\/\/second_project.test\/api\/employees?page=19","label":"19","active":false},{"url":"http:\/\/second_project.test\/api\/employees?page=20","label":"20","active":false},{"url":"http:\/\/second_project.test\/api\/employees?page=2","label":"Next &raquo;","active":false}],"next_page_url":"http:\/\/second_project.test\/api\/employees?page=2","path":"http:\/\/second_project.test\/api\/employees","per_page":10,"prev_page_url":null,"to":10,"total":200}'
        headers:
          cache-control: 'no-cache, private'
          content-type: application/json
          x-ratelimit-limit: '60'
          x-ratelimit-remaining: '59'
          access-control-allow-origin: '*'
        description: null
    responseFields: []
  -
    httpMethods:
      - GET
    uri: 'api/employees/{id}'
    metadata:
      title: 'Display the specified resource.'
      description: ''
      authenticated: false
      custom: []
    headers:
      Content-Type: application/json
      Accept: application/json
    urlParameters:
      id:
        name: id
        description: 'The ID of the employee.'
        required: true
        example: 4
        type: integer
        custom: []
    queryParameters: []
    bodyParameters: []
    responses:
      -
        status: 200
        content: '{}'
        headers:
          cache-control: 'no-cache, private'
          content-type: application/json
          x-ratelimit-limit: '60'
          x-ratelimit-remaining: '58'
          access-control-allow-origin: '*'
        description: null
    responseFields: []
  -
    httpMethods:
      - POST
    uri: api/employees
    metadata:
      title: 'Store a newly created resource in storage.'
      description: ''
      authenticated: false
      custom: []
    headers:
      Content-Type: application/json
      Accept: application/json
    urlParameters: []
    queryParameters: []
    bodyParameters: []
    responses: []
    responseFields: []
  -
    httpMethods:
      - PUT
    uri: 'api/employees/{id}'
    metadata:
      title: 'Update the specified resource in storage.'
      description: ''
      authenticated: false
      custom: []
    headers:
      Content-Type: application/json
      Accept: application/json
    urlParameters:
      id:
        name: id
        description: 'The ID of the employee.'
        required: true
        example: 8
        type: integer
        custom: []
    queryParameters: []
    bodyParameters: []
    responses: []
    responseFields: []
  -
    httpMethods:
      - DELETE
    uri: 'api/employees/{id}'
    metadata:
      title: 'Remove the specified resource from storage.'
      description: ''
      authenticated: false
      custom: []
    headers:
      Content-Type: application/json
      Accept: application/json
    urlParameters:
      id:
        name: id
        description: 'The ID of the employee.'
        required: true
        example: 12
        type: integer
        custom: []
    queryParameters: []
    bodyParameters: []
    responses: []
    responseFields: []
  -
    httpMethods:
      - GET
    uri: api/companies
    metadata:
      title: 'Display a listing of the resource.'
      description: ''
      authenticated: false
      custom: []
    headers:
      Content-Type: application/json
      Accept: application/json
    urlParameters: []
    queryParameters: []
    bodyParameters: []
    responses:
      -
        status: 200
        content: '{"current_page":1,"data":[{"id":16,"name":"Ledner, Weissnat and Sipes Inc","email":"kokuneva@mcdermott.com","logo":null,"website":null,"created_at":null,"updated_at":null},{"id":17,"name":"Kuhlman and Sons Ltd","email":"yadira75@koepp.org","logo":null,"website":null,"created_at":null,"updated_at":null},{"id":18,"name":"Jacobi, Brakus and Zulauf Inc","email":"pkiehn@deckow.org","logo":null,"website":null,"created_at":null,"updated_at":null},{"id":19,"name":"Schamberger and Sons Group","email":"xlebsack@blanda.biz","logo":null,"website":null,"created_at":null,"updated_at":null},{"id":20,"name":"Shanahan PLC PLC","email":"vvolkman@macejkovic.com","logo":null,"website":null,"created_at":null,"updated_at":null},{"id":21,"name":"Mitchell Group PLC","email":"kelly83@klocko.com","logo":null,"website":null,"created_at":null,"updated_at":null},{"id":22,"name":"Ruecker Inc and Sons","email":"jackie.oberbrunner@king.com","logo":null,"website":null,"created_at":null,"updated_at":null},{"id":23,"name":"McCullough LLC and Sons","email":"jacquelyn.russel@bergnaum.net","logo":null,"website":null,"created_at":null,"updated_at":null},{"id":24,"name":"Jast, Beatty and Bosco Inc","email":"ankunding.vivienne@paucek.com","logo":null,"website":null,"created_at":null,"updated_at":null},{"id":25,"name":"Hane-Bogisich Group","email":"yrolfson@schoen.biz","logo":null,"website":null,"created_at":null,"updated_at":null}],"first_page_url":"http:\/\/second_project.test\/api\/companies?page=1","from":1,"last_page":2,"last_page_url":"http:\/\/second_project.test\/api\/companies?page=2","links":[{"url":null,"label":"&laquo; Previous","active":false},{"url":"http:\/\/second_project.test\/api\/companies?page=1","label":"1","active":true},{"url":"http:\/\/second_project.test\/api\/companies?page=2","label":"2","active":false},{"url":"http:\/\/second_project.test\/api\/companies?page=2","label":"Next &raquo;","active":false}],"next_page_url":"http:\/\/second_project.test\/api\/companies?page=2","path":"http:\/\/second_project.test\/api\/companies","per_page":10,"prev_page_url":null,"to":10,"total":15}'
        headers:
          cache-control: 'no-cache, private'
          content-type: application/json
          x-ratelimit-limit: '60'
          x-ratelimit-remaining: '57'
          access-control-allow-origin: '*'
        description: null
    responseFields: []
  -
    httpMethods:
      - GET
    uri: 'api/companies/{id}'
    metadata:
      title: 'Display the specified resource.'
      description: ''
      authenticated: false
      custom: []
    headers:
      Content-Type: application/json
      Accept: application/json
    urlParameters:
      id:
        name: id
        description: 'The ID of the company.'
        required: true
        example: 9
        type: integer
        custom: []
    queryParameters: []
    bodyParameters: []
    responses:
      -
        status: 200
        content: '{}'
        headers:
          cache-control: 'no-cache, private'
          content-type: application/json
          x-ratelimit-limit: '60'
          x-ratelimit-remaining: '56'
          access-control-allow-origin: '*'
        description: null
    responseFields: []
  -
    httpMethods:
      - POST
    uri: api/companies
    metadata:
      title: 'Store a newly created resource in storage.'
      description: ''
      authenticated: false
      custom: []
    headers:
      Content-Type: application/json
      Accept: application/json
    urlParameters: []
    queryParameters: []
    bodyParameters: []
    responses: []
    responseFields: []
  -
    httpMethods:
      - POST
    uri: 'api/companies/{id}'
    metadata:
      title: ''
      description: ''
      authenticated: false
      custom: []
    headers:
      Content-Type: application/json
      Accept: application/json
    urlParameters:
      id:
        name: id
        description: 'The ID of the company.'
        required: true
        example: 13
        type: integer
        custom: []
    queryParameters: []
    bodyParameters: []
    responses: []
    responseFields: []
  -
    httpMethods:
      - PUT
    uri: 'api/companies/{id}'
    metadata:
      title: 'Update the specified resource in storage.'
      description: ''
      authenticated: false
      custom: []
    headers:
      Content-Type: application/json
      Accept: application/json
    urlParameters:
      id:
        name: id
        description: 'The ID of the company.'
        required: true
        example: 12
        type: integer
        custom: []
    queryParameters: []
    bodyParameters: []
    responses: []
    responseFields: []
  -
    httpMethods:
      - DELETE
    uri: 'api/companies/{id}'
    metadata:
      title: 'Remove the specified resource from storage.'
      description: ''
      authenticated: false
      custom: []
    headers:
      Content-Type: application/json
      Accept: application/json
    urlParameters:
      id:
        name: id
        description: 'The ID of the company.'
        required: true
        example: 8
        type: integer
        custom: []
    queryParameters: []
    bodyParameters: []
    responses: []
    responseFields: []
